task3/f1_delay.vcd
$version Generated by VerilatedVcd $end
$date Thu Nov  2 11:42:21 2023 $end
$timescale 1ps $end

 $scope module TOP $end
  $scope module f1_delay $end
   $var wire 32 , DATA_WIDTH [31:0] $end
   $var wire  1 # tick $end
   $scope module FSM $end
    $var wire 32 , DATA_WIDTH [31:0] $end
    $var wire  1 ( clk $end
    $var wire 32 $ current_state [31:0] $end
    $var wire  8 ) data_out [7:0] $end
    $var wire  1 # en $end
    $var wire 32 % next_state [31:0] $end
    $var wire  1 ' rst $end
   $upscope $end
   $scope module Tick $end
    $var wire 16 + N [15:0] $end
    $var wire 32 - WIDTH [31:0] $end
    $var wire  1 ( clk $end
    $var wire 16 & count [15:0] $end
    $var wire  1 * en $end
    $var wire  1 ' rst $end
    $var wire  1 # tick $end
   $upscope $end
  $upscope $end
 $upscope $end
$enddefinitions $end


#0
0#
b00000000000000000000000000000000 $
b00000000000000000000000000000000 %
b0000000000000000 &
1'
0(
b00000000 )
1*
b0000000000001110 +
b00000000000000000000000000001000 ,
b00000000000000000000000000010000 -
#1
1(
#2
b0000000000001110 &
0(
b0000000000001111 +
#3
1(
#4
b0000000000001111 &
0(
#5
1(
#6
0'
0(
#7
1(
#8
b0000000000001110 &
0(
#9
1(
#10
b0000000000001101 &
0(
#11
1(
#12
b0000000000001100 &
0(
#13
1(
#14
b0000000000001011 &
0(
#15
1(
#16
b0000000000001010 &
0(
#17
1(
#18
b0000000000001001 &
0(
#19
1(
#20
b0000000000001000 &
0(
#21
1(
#22
b0000000000000111 &
0(
#23
1(
#24
b0000000000000110 &
0(
#25
1(
#26
b0000000000000101 &
0(
#27
1(
#28
b0000000000000100 &
0(
#29
1(
#30
b0000000000000011 &
0(
#31
1(
#32
b0000000000000010 &
0(
#33
1(
#34
b0000000000000001 &
0(
#35
1(
#36
b0000000000000000 &
0(
#37
1(
#38
1#
b00000000000000000000000000000001 %
b0000000000001111 &
0(
#39
1(
#40
0#
b00000000000000000000000000000001 $
b0000000000001110 &
0(
b00000001 )
#41
1(
#42
b0000000000001101 &
0(
#43
1(
#44
b0000000000001100 &
0(
#45
1(
#46
b0000000000001011 &
0(
#47
1(
#48
b0000000000001010 &
0(
#49
1(
#50
b0000000000001001 &
0(
#51
1(
#52
b0000000000001000 &
0(
#53
1(
#54
b0000000000000111 &
0(
#55
1(
#56
b0000000000000110 &
0(
#57
1(
#58
b0000000000000101 &
0(
#59
1(
#60
b0000000000000100 &
0(
#61
1(
#62
b0000000000000011 &
0(
#63
1(
#64
b0000000000000010 &
0(
#65
1(
#66
b0000000000000001 &
0(
#67
1(
#68
b0000000000000000 &
0(
#69
1(
#70
1#
b00000000000000000000000000000010 %
b0000000000001111 &
0(
#71
1(
#72
0#
b00000000000000000000000000000010 $
b0000000000001110 &
0(
b00000011 )
#73
1(
#74
b0000000000001101 &
0(
#75
1(
#76
b0000000000001100 &
0(
#77
1(
#78
b0000000000001011 &
0(
#79
1(
#80
b0000000000001010 &
0(
#81
1(
#82
b0000000000001001 &
0(
#83
1(
#84
b0000000000001000 &
0(
#85
1(
#86
b0000000000000111 &
0(
#87
1(
#88
b0000000000000110 &
0(
#89
1(
#90
b0000000000000101 &
0(
#91
1(
#92
b0000000000000100 &
0(
#93
1(
#94
b0000000000000011 &
0(
#95
1(
#96
b0000000000000010 &
0(
#97
1(
#98
b0000000000000001 &
0(
#99
1(
#100
b0000000000000000 &
0(
#101
1(
#102
1#
b00000000000000000000000000000011 %
b0000000000001111 &
0(
#103
1(
#104
0#
b00000000000000000000000000000011 $
b0000000000001110 &
0(
b00000111 )
#105
1(
#106
b0000000000001101 &
0(
#107
1(
#108
b0000000000001100 &
0(
#109
1(
#110
b0000000000001011 &
0(
#111
1(
#112
b0000000000001010 &
0(
#113
1(
#114
b0000000000001001 &
0(
#115
1(
#116
b0000000000001000 &
0(
#117
1(
#118
b0000000000000111 &
0(
#119
1(
#120
b0000000000000110 &
0(
#121
1(
#122
b0000000000000101 &
0(
#123
1(
#124
b0000000000000100 &
0(
#125
1(
#126
b0000000000000011 &
0(
#127
1(
#128
b0000000000000010 &
0(
#129
1(
#130
b0000000000000001 &
0(
#131
1(
#132
b0000000000000000 &
0(
#133
1(
#134
1#
b00000000000000000000000000000100 %
b0000000000001111 &
0(
#135
1(
#136
0#
b00000000000000000000000000000100 $
b0000000000001110 &
0(
b00001111 )
#137
1(
#138
b0000000000001101 &
0(
#139
1(
#140
b0000000000001100 &
0(
#141
1(
#142
b0000000000001011 &
0(
#143
1(
#144
b0000000000001010 &
0(
#145
1(
#146
b0000000000001001 &
0(
#147
1(
#148
b0000000000001000 &
0(
#149
1(
#150
b0000000000000111 &
0(
#151
1(
#152
b0000000000000110 &
0(
#153
1(
#154
b0000000000000101 &
0(
#155
1(
#156
b0000000000000100 &
0(
#157
1(
#158
b0000000000000011 &
0(
#159
1(
#160
b0000000000000010 &
0(
#161
1(
#162
b0000000000000001 &
0(
#163
1(
#164
b0000000000000000 &
0(
#165
1(
#166
1#
b00000000000000000000000000000101 %
b0000000000001111 &
0(
#167
1(
#168
0#
b00000000000000000000000000000101 $
b0000000000001110 &
0(
b00011111 )
#169
1(
#170
b0000000000001101 &
0(
#171
1(
#172
b0000000000001100 &
0(
#173
1(
#174
b0000000000001011 &
0(
#175
1(
#176
b0000000000001010 &
0(
#177
1(
#178
b0000000000001001 &
0(
#179
1(
#180
b0000000000001000 &
0(
#181
1(
#182
b0000000000000111 &
0(
#183
1(
#184
b0000000000000110 &
0(
#185
1(
#186
b0000000000000101 &
0(
#187
1(
#188
b0000000000000100 &
0(
#189
1(
#190
b0000000000000011 &
0(
#191
1(
#192
b0000000000000010 &
0(
#193
1(
#194
b0000000000000001 &
0(
#195
1(
#196
b0000000000000000 &
0(
#197
1(
#198
1#
b00000000000000000000000000000110 %
b0000000000001111 &
0(
#199
1(
#200
0#
b00000000000000000000000000000110 $
b0000000000001110 &
0(
b00111111 )
#201
1(
#202
b0000000000001101 &
0(
#203
1(
#204
b0000000000001100 &
0(
#205
1(
#206
b0000000000001011 &
0(
#207
1(
#208
b0000000000001010 &
0(
#209
1(
#210
b0000000000001001 &
0(
#211
1(
#212
b0000000000001000 &
0(
#213
1(
#214
b0000000000000111 &
0(
#215
1(
#216
b0000000000000110 &
0(
#217
1(
#218
b0000000000000101 &
0(
#219
1(
#220
b0000000000000100 &
0(
#221
1(
#222
b0000000000000011 &
0(
#223
1(
#224
b0000000000000010 &
0(
#225
1(
#226
b0000000000000001 &
0(
#227
1(
#228
b0000000000000000 &
0(
#229
1(
#230
1#
b00000000000000000000000000000111 %
b0000000000001111 &
0(
#231
1(
#232
0#
b00000000000000000000000000000111 $
b0000000000001110 &
0(
b01111111 )
#233
1(
#234
b0000000000001101 &
0(
#235
1(
#236
b0000000000001100 &
0(
#237
1(
#238
b0000000000001011 &
0(
#239
1(
#240
b0000000000001010 &
0(
#241
1(
#242
b0000000000001001 &
0(
#243
1(
#244
b0000000000001000 &
0(
#245
1(
#246
b0000000000000111 &
0(
#247
1(
#248
b0000000000000110 &
0(
#249
1(
#250
b0000000000000101 &
0(
#251
1(
#252
b0000000000000100 &
0(
#253
1(
#254
b0000000000000011 &
0(
#255
1(
#256
b0000000000000010 &
0(
#257
1(
#258
b0000000000000001 &
0(
#259
1(
#260
b0000000000000000 &
0(
#261
1(
#262
1#
b00000000000000000000000000001000 %
b0000000000001111 &
0(
#263
1(
#264
0#
b00000000000000000000000000001000 $
b0000000000001110 &
0(
b11111111 )
#265
1(
#266
b0000000000001101 &
0(
#267
1(
#268
b0000000000001100 &
0(
#269
1(
#270
b0000000000001011 &
0(
#271
1(
#272
b0000000000001010 &
0(
#273
1(
#274
b0000000000001001 &
0(
#275
1(
#276
b0000000000001000 &
0(
#277
1(
#278
b0000000000000111 &
0(
#279
1(
#280
b0000000000000110 &
0(
#281
1(
#282
b0000000000000101 &
0(
#283
1(
#284
b0000000000000100 &
0(
#285
1(
#286
b0000000000000011 &
0(
#287
1(
#288
b0000000000000010 &
0(
#289
1(
#290
b0000000000000001 &
0(
#291
1(
#292
b0000000000000000 &
0(
#293
1(
#294
1#
b00000000000000000000000000000000 %
b0000000000001111 &
0(
#295
1(
#296
0#
b00000000000000000000000000000000 $
b0000000000001110 &
0(
b00000000 )
#297
1(
#298
b0000000000001101 &
0(
#299
1(
#300
b0000000000001100 &
0(
#301
1(
#302
b0000000000001011 &
0(
#303
1(
#304
b0000000000001010 &
0(
#305
1(
#306
b0000000000001001 &
0(
#307
1(
#308
b0000000000001000 &
0(
#309
1(
#310
b0000000000000111 &
0(
#311
1(
#312
b0000000000000110 &
0(
#313
1(
#314
b0000000000000101 &
0(
#315
1(
#316
b0000000000000100 &
0(
#317
1(
#318
b0000000000000011 &
0(
#319
1(
#320
b0000000000000010 &
0(
#321
1(
#322
b0000000000000001 &
0(
#323
1(
#324
b0000000000000000 &
0(
#325
1(
#326
1#
b00000000000000000000000000000001 %
b0000000000001111 &
0(
#327
1(
#328
0#
b00000000000000000000000000000001 $
b0000000000001110 &
0(
b00000001 )
#329
1(
#330
b0000000000001101 &
0(
#331
1(
#332
b0000000000001100 &
0(
#333
1(
#334
b0000000000001011 &
0(
#335
1(
#336
b0000000000001010 &
0(
#337
1(
#338
b0000000000001001 &
0(
#339
1(
#340
b0000000000001000 &
0(
#341
1(
#342
b0000000000000111 &
0(
#343
1(
#344
b0000000000000110 &
0(
#345
1(
#346
b0000000000000101 &
0(
#347
1(
#348
b0000000000000100 &
0(
#349
1(
#350
b0000000000000011 &
0(
#351
1(
#352
b0000000000000010 &
0(
#353
1(
#354
b0000000000000001 &
0(
#355
1(
#356
b0000000000000000 &
0(
#357
1(
#358
1#
b00000000000000000000000000000010 %
b0000000000001111 &
0(
#359
1(
#360
0#
b00000000000000000000000000000010 $
b0000000000001110 &
0(
b00000011 )
#361
1(
#362
b0000000000001101 &
0(
#363
1(
#364
b0000000000001100 &
0(
#365
1(
#366
b0000000000001011 &
0(
#367
1(
#368
b0000000000001010 &
0(
#369
1(
#370
b0000000000001001 &
0(
#371
1(
#372
b0000000000001000 &
0(
#373
1(
#374
b0000000000000111 &
0(
#375
1(
#376
b0000000000000110 &
0(
#377
1(
#378
b0000000000000101 &
0(
#379
1(
#380
b0000000000000100 &
0(
#381
1(
#382
b0000000000000011 &
0(
#383
1(
#384
b0000000000000010 &
0(
#385
1(
#386
b0000000000000001 &
0(
#387
1(
#388
b0000000000000000 &
0(
#389
1(
#390
1#
b00000000000000000000000000000011 %
b0000000000001111 &
0(
#391
1(
#392
0#
b00000000000000000000000000000011 $
b0000000000001110 &
0(
b00000111 )
#393
1(
#394
b0000000000001101 &
0(
#395
1(
#396
b0000000000001100 &
0(
#397
1(
#398
b0000000000001011 &
0(
#399
1(
#400
b0000000000001010 &
0(
#401
1(
#402
b0000000000001001 &
0(
#403
1(
#404
b0000000000001000 &
0(
#405
1(
#406
b0000000000000111 &
0(
#407
1(
#408
b0000000000000110 &
0(
#409
1(
#410
b0000000000000101 &
0(
#411
1(
#412
b0000000000000100 &
0(
#413
1(
#414
b0000000000000011 &
0(
#415
1(
#416
b0000000000000010 &
0(
#417
1(
#418
b0000000000000001 &
0(
#419
1(
#420
b0000000000000000 &
0(
#421
1(
#422
1#
b00000000000000000000000000000100 %
b0000000000001111 &
0(
#423
1(
#424
0#
b00000000000000000000000000000100 $
b0000000000001110 &
0(
b00001111 )
#425
1(
#426
b0000000000001101 &
0(
#427
1(
#428
b0000000000001100 &
0(
#429
1(
#430
b0000000000001011 &
0(
#431
1(
#432
b0000000000001010 &
0(
#433
1(
#434
b0000000000001001 &
0(
#435
1(
#436
b0000000000001000 &
0(
#437
1(
#438
b0000000000000111 &
0(
#439
1(
#440
b0000000000000110 &
0(
#441
1(
#442
b0000000000000101 &
0(
#443
1(
#444
b0000000000000100 &
0(
#445
1(
#446
b0000000000000011 &
0(
#447
1(
#448
b0000000000000010 &
0(
#449
1(
#450
b0000000000000001 &
0(
#451
1(
#452
b0000000000000000 &
0(
#453
1(
#454
1#
b00000000000000000000000000000101 %
b0000000000001111 &
0(
#455
1(
#456
0#
b00000000000000000000000000000101 $
b0000000000001110 &
0(
b00011111 )
#457
1(
#458
b0000000000001101 &
0(
#459
1(
#460
b0000000000001100 &
0(
#461
1(
#462
b0000000000001011 &
0(
#463
1(
#464
b0000000000001010 &
0(
#465
1(
#466
b0000000000001001 &
0(
#467
1(
#468
b0000000000001000 &
0(
#469
1(
#470
b0000000000000111 &
0(
#471
1(
#472
b0000000000000110 &
0(
#473
1(
#474
b0000000000000101 &
0(
#475
1(
#476
b0000000000000100 &
0(
#477
1(
#478
b0000000000000011 &
0(
#479
1(
#480
b0000000000000010 &
0(
#481
1(
#482
b0000000000000001 &
0(
#483
1(
#484
b0000000000000000 &
0(
#485
1(
#486
1#
b00000000000000000000000000000110 %
b0000000000001111 &
0(
#487
1(
#488
0#
b00000000000000000000000000000110 $
b0000000000001110 &
0(
b00111111 )
#489
1(
#490
b0000000000001101 &
0(
#491
1(
#492
b0000000000001100 &
0(
#493
1(
#494
b0000000000001011 &
0(
#495
1(
#496
b0000000000001010 &
0(
#497
1(
#498
b0000000000001001 &
0(
#499
1(
#500
b0000000000001000 &
0(
#501
1(
#502
b0000000000000111 &
0(
#503
1(
#504
b0000000000000110 &
0(
#505
1(
#506
b0000000000000101 &
0(
#507
1(
#508
b0000000000000100 &
0(
#509
1(
#510
b0000000000000011 &
0(
#511
1(
#512
b0000000000000010 &
0(
#513
1(
#514
b0000000000000001 &
0(
#515
1(
#516
b0000000000000000 &
0(
#517
1(
#518
1#
b00000000000000000000000000000111 %
b0000000000001111 &
0(
#519
1(
#520
0#
b00000000000000000000000000000111 $
b0000000000001110 &
0(
b01111111 )
#521
1(
#522
b0000000000001101 &
0(
#523
1(
#524
b0000000000001100 &
0(
#525
1(
#526
b0000000000001011 &
0(
#527
1(
#528
b0000000000001010 &
0(
#529
1(
#530
b0000000000001001 &
0(
#531
1(
#532
b0000000000001000 &
0(
#533
1(
#534
b0000000000000111 &
0(
#535
1(
#536
b0000000000000110 &
0(
#537
1(
#538
b0000000000000101 &
0(
#539
1(
#540
b0000000000000100 &
0(
#541
1(
#542
b0000000000000011 &
0(
#543
1(
#544
b0000000000000010 &
0(
#545
1(
#546
b0000000000000001 &
0(
#547
1(
#548
b0000000000000000 &
0(
#549
1(
#550
1#
b00000000000000000000000000001000 %
b0000000000001111 &
0(
#551
1(
#552
0#
b00000000000000000000000000001000 $
b0000000000001110 &
0(
b11111111 )
#553
1(
#554
b0000000000001101 &
0(
#555
1(
#556
b0000000000001100 &
0(
#557
1(
#558
b0000000000001011 &
0(
#559
1(
#560
b0000000000001010 &
0(
#561
1(
#562
b0000000000001001 &
0(
#563
1(
#564
b0000000000001000 &
0(
#565
1(
#566
b0000000000000111 &
0(
#567
1(
#568
b0000000000000110 &
0(
#569
1(
#570
b0000000000000101 &
0(
#571
1(
#572
b0000000000000100 &
0(
#573
1(
#574
b0000000000000011 &
0(
#575
1(
#576
b0000000000000010 &
0(
#577
1(
#578
b0000000000000001 &
0(
#579
1(
#580
b0000000000000000 &
0(
#581
1(
#582
1#
b00000000000000000000000000000000 %
b0000000000001111 &
0(
#583
1(
#584
0#
b00000000000000000000000000000000 $
b0000000000001110 &
0(
b00000000 )
#585
1(
#586
b0000000000001101 &
0(
#587
1(
#588
b0000000000001100 &
0(
#589
1(
#590
b0000000000001011 &
0(
#591
1(
#592
b0000000000001010 &
0(
#593
1(
#594
b0000000000001001 &
0(
#595
1(
#596
b0000000000001000 &
0(
#597
1(
#598
b0000000000000111 &
0(
#599
1(
#600
b0000000000000110 &
0(
#601
1(
#602
b0000000000000101 &
0(
#603
1(
#604
b0000000000000100 &
0(
#605
1(
#606
b0000000000000011 &
0(
#607
1(
#608
b0000000000000010 &
0(
#609
1(
#610
b0000000000000001 &
0(
#611
1(
#612
b0000000000000000 &
0(
#613
1(
#614
1#
b00000000000000000000000000000001 %
b0000000000001111 &
0(
#615
1(
#616
0#
b00000000000000000000000000000001 $
b0000000000001110 &
0(
b00000001 )
#617
1(
#618
b0000000000001101 &
0(
#619
1(
#620
b0000000000001100 &
0(
#621
1(
#622
b0000000000001011 &
0(
#623
1(
#624
b0000000000001010 &
0(
#625
1(
#626
b0000000000001001 &
0(
#627
1(
#628
b0000000000001000 &
0(
#629
1(
#630
b0000000000000111 &
0(
#631
1(
#632
b0000000000000110 &
0(
#633
1(
#634
b0000000000000101 &
0(
#635
1(
#636
b0000000000000100 &
0(
#637
1(
#638
b0000000000000011 &
0(
#639
1(
#640
b0000000000000010 &
0(
#641
1(
#642
b0000000000000001 &
0(
#643
1(
#644
b0000000000000000 &
0(
#645
1(
#646
1#
b00000000000000000000000000000010 %
b0000000000001111 &
0(
#647
1(
#648
0#
b00000000000000000000000000000010 $
b0000000000001110 &
0(
b00000011 )
#649
1(
#650
b0000000000001101 &
0(
#651
1(
#652
b0000000000001100 &
0(
#653
1(
#654
b0000000000001011 &
0(
#655
1(
#656
b0000000000001010 &
0(
#657
1(
#658
b0000000000001001 &
0(
#659
1(
#660
b0000000000001000 &
0(
#661
1(
#662
b0000000000000111 &
0(
#663
1(
#664
b0000000000000110 &
0(
#665
1(
#666
b0000000000000101 &
0(
#667
1(
#668
b0000000000000100 &
0(
#669
1(
#670
b0000000000000011 &
0(
#671
1(
#672
b0000000000000010 &
0(
#673
1(
#674
b0000000000000001 &
0(
#675
1(
#676
b0000000000000000 &
0(
#677
1(
#678
1#
b00000000000000000000000000000011 %
b0000000000001111 &
0(
#679
1(
#680
0#
b00000000000000000000000000000011 $
b0000000000001110 &
0(
b00000111 )
#681
1(
#682
b0000000000001101 &
0(
#683
1(
#684
b0000000000001100 &
0(
#685
1(
#686
b0000000000001011 &
0(
#687
1(
#688
b0000000000001010 &
0(
#689
1(
#690
b0000000000001001 &
0(
#691
1(
#692
b0000000000001000 &
0(
#693
1(
#694
b0000000000000111 &
0(
#695
1(
#696
b0000000000000110 &
0(
#697
1(
#698
b0000000000000101 &
0(
#699
1(
#700
b0000000000000100 &
0(
#701
1(
#702
b0000000000000011 &
0(
#703
1(
#704
b0000000000000010 &
0(
#705
1(
#706
b0000000000000001 &
0(
#707
1(
#708
b0000000000000000 &
0(
#709
1(
#710
1#
b00000000000000000000000000000100 %
b0000000000001111 &
0(
#711
1(
#712
0#
b00000000000000000000000000000100 $
b0000000000001110 &
0(
b00001111 )
#713
1(
#714
b0000000000001101 &
0(
#715
1(
#716
b0000000000001100 &
0(
#717
1(
#718
b0000000000001011 &
0(
#719
1(
#720
b0000000000001010 &
0(
#721
1(
#722
b0000000000001001 &
0(
#723
1(
#724
b0000000000001000 &
0(
#725
1(
#726
b0000000000000111 &
0(
#727
1(
#728
b0000000000000110 &
0(
#729
1(
#730
b0000000000000101 &
0(
#731
1(
#732
b0000000000000100 &
0(
#733
1(
#734
b0000000000000011 &
0(
#735
1(
#736
b0000000000000010 &
0(
#737
1(
#738
b0000000000000001 &
0(
#739
1(
#740
b0000000000000000 &
0(
#741
1(
#742
1#
b00000000000000000000000000000101 %
b0000000000001111 &
0(
#743
1(
#744
0#
b00000000000000000000000000000101 $
b0000000000001110 &
0(
b00011111 )
#745
1(
#746
b0000000000001101 &
0(
#747
1(
#748
b0000000000001100 &
0(
#749
1(
#750
b0000000000001011 &
0(
#751
1(
#752
b0000000000001010 &
0(
#753
1(
#754
b0000000000001001 &
0(
#755
1(
#756
b0000000000001000 &
0(
#757
1(
#758
b0000000000000111 &
0(
#759
1(
#760
b0000000000000110 &
0(
#761
1(
#762
b0000000000000101 &
0(
#763
1(
#764
b0000000000000100 &
0(
#765
1(
#766
b0000000000000011 &
0(
#767
1(
#768
b0000000000000010 &
0(
#769
1(
#770
b0000000000000001 &
0(
#771
1(
#772
b0000000000000000 &
0(
#773
1(
#774
1#
b00000000000000000000000000000110 %
b0000000000001111 &
0(
#775
1(
#776
0#
b00000000000000000000000000000110 $
b0000000000001110 &
0(
b00111111 )
#777
1(
#778
b0000000000001101 &
0(
#779
1(
#780
b0000000000001100 &
0(
#781
1(
#782
b0000000000001011 &
0(
#783
1(
#784
b0000000000001010 &
0(
#785
1(
#786
b0000000000001001 &
0(
#787
1(
#788
b0000000000001000 &
0(
#789
1(
#790
b0000000000000111 &
0(
#791
1(
#792
b0000000000000110 &
0(
#793
1(
#794
b0000000000000101 &
0(
#795
1(
#796
b0000000000000100 &
0(
#797
1(
#798
b0000000000000011 &
0(
#799
1(
#800
b0000000000000010 &
0(
#801
1(
#802
b0000000000000001 &
0(
#803
1(
#804
b0000000000000000 &
0(
#805
1(
#806
1#
b00000000000000000000000000000111 %
b0000000000001111 &
0(
#807
1(
#808
0#
b00000000000000000000000000000111 $
b0000000000001110 &
0(
b01111111 )
#809
1(
#810
b0000000000001101 &
0(
#811
1(
#812
b0000000000001100 &
0(
#813
1(
#814
b0000000000001011 &
0(
#815
1(
#816
b0000000000001010 &
0(
#817
1(
#818
b0000000000001001 &
0(
#819
1(
#820
b0000000000001000 &
0(
#821
1(
#822
b0000000000000111 &
0(
#823
1(
#824
b0000000000000110 &
0(
#825
1(
#826
b0000000000000101 &
0(
#827
1(
#828
b0000000000000100 &
0(
#829
1(
#830
b0000000000000011 &
0(
#831
1(
#832
b0000000000000010 &
0(
#833
1(
#834
b0000000000000001 &
0(
#835
1(
#836
b0000000000000000 &
0(
#837
1(
#838
1#
b00000000000000000000000000001000 %
b0000000000001111 &
0(
#839
1(
#840
0#
b00000000000000000000000000001000 $
b0000000000001110 &
0(
b11111111 )
#841
1(
#842
b0000000000001101 &
0(
#843
1(
#844
b0000000000001100 &
0(
#845
1(
#846
b0000000000001011 &
0(
#847
1(
#848
b0000000000001010 &
0(
#849
1(
#850
b0000000000001001 &
0(
#851
1(
#852
b0000000000001000 &
0(
#853
1(
#854
b0000000000000111 &
0(
#855
1(
#856
b0000000000000110 &
0(
#857
1(
#858
b0000000000000101 &
0(
#859
1(
#860
b0000000000000100 &
0(
#861
1(
#862
b0000000000000011 &
0(
#863
1(
#864
b0000000000000010 &
0(
#865
1(
#866
b0000000000000001 &
0(
#867
1(
#868
b0000000000000000 &
0(
#869
1(
#870
1#
b00000000000000000000000000000000 %
b0000000000001111 &
0(
#871
1(
#872
0#
b00000000000000000000000000000000 $
b0000000000001110 &
0(
b00000000 )
#873
1(
#874
b0000000000001101 &
0(
#875
1(
#876
b0000000000001100 &
0(
#877
1(
#878
b0000000000001011 &
0(
#879
1(
#880
b0000000000001010 &
0(
#881
1(
#882
b0000000000001001 &
0(
#883
1(
#884
b0000000000001000 &
0(
#885
1(
#886
b0000000000000111 &
0(
#887
1(
#888
b0000000000000110 &
0(
#889
1(
#890
b0000000000000101 &
0(
#891
1(
#892
b0000000000000100 &
0(
#893
1(
#894
b0000000000000011 &
0(
#895
1(
#896
b0000000000000010 &
0(
#897
1(
#898
b0000000000000001 &
0(
#899
1(
#900
b0000000000000000 &
0(
#901
1(
#902
1#
b00000000000000000000000000000001 %
b0000000000001111 &
0(
#903
1(
#904
0#
b00000000000000000000000000000001 $
b0000000000001110 &
0(
b00000001 )
#905
1(
#906
b0000000000001101 &
0(
#907
1(
#908
b0000000000001100 &
0(
#909
1(
#910
b0000000000001011 &
0(
#911
1(
#912
b0000000000001010 &
0(
#913
1(
#914
b0000000000001001 &
0(
#915
1(
#916
b0000000000001000 &
0(
#917
1(
#918
b0000000000000111 &
0(
#919
1(
#920
b0000000000000110 &
0(
#921
1(
#922
b0000000000000101 &
0(
#923
1(
#924
b0000000000000100 &
0(
#925
1(
#926
b0000000000000011 &
0(
#927
1(
#928
b0000000000000010 &
0(
#929
1(
#930
b0000000000000001 &
0(
#931
1(
#932
b0000000000000000 &
0(
#933
1(
#934
1#
b00000000000000000000000000000010 %
b0000000000001111 &
0(
#935
1(
#936
0#
b00000000000000000000000000000010 $
b0000000000001110 &
0(
b00000011 )
#937
1(
#938
b0000000000001101 &
0(
#939
1(
#940
b0000000000001100 &
0(
#941
1(
#942
b0000000000001011 &
0(
#943
1(
#944
b0000000000001010 &
0(
#945
1(
#946
b0000000000001001 &
0(
#947
1(
#948
b0000000000001000 &
0(
#949
1(
#950
b0000000000000111 &
0(
#951
1(
#952
b0000000000000110 &
0(
#953
1(
#954
b0000000000000101 &
0(
#955
1(
#956
b0000000000000100 &
0(
#957
1(
#958
b0000000000000011 &
0(
#959
1(
#960
b0000000000000010 &
0(
#961
1(
#962
b0000000000000001 &
0(
#963
1(
#964
b0000000000000000 &
0(
#965
1(
#966
1#
b00000000000000000000000000000011 %
b0000000000001111 &
0(
#967
1(
#968
0#
b00000000000000000000000000000011 $
b0000000000001110 &
0(
b00000111 )
#969
1(
#970
b0000000000001101 &
0(
#971
1(
#972
b0000000000001100 &
0(
#973
1(
#974
b0000000000001011 &
0(
#975
1(
#976
b0000000000001010 &
0(
#977
1(
#978
b0000000000001001 &
0(
#979
1(
#980
b0000000000001000 &
0(
#981
1(
#982
b0000000000000111 &
0(
#983
1(
#984
b0000000000000110 &
0(
#985
1(
#986
b0000000000000101 &
0(
#987
1(
#988
b0000000000000100 &
0(
#989
1(
#990
b0000000000000011 &
0(
#991
1(
#992
b0000000000000010 &
0(
#993
1(
#994
b0000000000000001 &
0(
#995
1(
#996
b0000000000000000 &
0(
#997
1(
#998
1#
b00000000000000000000000000000100 %
b0000000000001111 &
0(
#999
1(
#1000
0#
b00000000000000000000000000000100 $
b0000000000001110 &
0(
b00001111 )
#1001
1(
#1002
b0000000000001101 &
0(
#1003
1(
#1004
b0000000000001100 &
0(
#1005
1(
#1006
b0000000000001011 &
0(
#1007
1(
#1008
b0000000000001010 &
0(
#1009
1(
#1010
b0000000000001001 &
0(
#1011
1(
#1012
b0000000000001000 &
0(
#1013
1(
#1014
b0000000000000111 &
0(
#1015
1(
#1016
b0000000000000110 &
0(
#1017
1(
#1018
b0000000000000101 &
0(
#1019
1(
#1020
b0000000000000100 &
0(
#1021
1(
#1022
b0000000000000011 &
0(
#1023
1(
#1024
b0000000000000010 &
0(
#1025
1(
#1026
b0000000000000001 &
0(
#1027
1(
#1028
b0000000000000000 &
0(
#1029
1(
#1030
1#
b00000000000000000000000000000101 %
b0000000000001111 &
0(
#1031
1(
#1032
0#
b00000000000000000000000000000101 $
b0000000000001110 &
0(
b00011111 )
#1033
1(
#1034
b0000000000001101 &
0(
#1035
1(
#1036
b0000000000001100 &
0(
#1037
1(
#1038
b0000000000001011 &
0(
#1039
1(
#1040
b0000000000001010 &
0(
#1041
1(
#1042
b0000000000001001 &
0(
#1043
1(
#1044
b0000000000001000 &
0(
#1045
1(
#1046
b0000000000000111 &
0(
#1047
1(
#1048
b0000000000000110 &
0(
#1049
1(
#1050
b0000000000000101 &
0(
#1051
1(
#1052
b0000000000000100 &
0(
#1053
1(
#1054
b0000000000000011 &
0(
#1055
1(
#1056
b0000000000000010 &
0(
#1057
1(
#1058
b0000000000000001 &
0(
#1059
1(
#1060
b0000000000000000 &
0(
#1061
1(
#1062
1#
b00000000000000000000000000000110 %
b0000000000001111 &
0(
#1063
1(
#1064
0#
b00000000000000000000000000000110 $
b0000000000001110 &
0(
b00111111 )
#1065
1(
#1066
b0000000000001101 &
0(
#1067
1(
#1068
b0000000000001100 &
0(
#1069
1(
#1070
b0000000000001011 &
0(
#1071
1(
#1072
b0000000000001010 &
0(
#1073
1(
#1074
b0000000000001001 &
0(
#1075
1(
#1076
b0000000000001000 &
0(
#1077
1(
#1078
b0000000000000111 &
0(
#1079
1(
#1080
b0000000000000110 &
0(
#1081
1(
#1082
b0000000000000101 &
0(
#1083
1(
#1084
b0000000000000100 &
0(
#1085
1(
#1086
b0000000000000011 &
0(
#1087
1(
#1088
b0000000000000010 &
0(
#1089
1(
#1090
b0000000000000001 &
0(
#1091
1(
#1092
b0000000000000000 &
0(
#1093
1(
#1094
1#
b00000000000000000000000000000111 %
b0000000000001111 &
0(
#1095
1(
#1096
0#
b00000000000000000000000000000111 $
b0000000000001110 &
0(
b01111111 )
#1097
1(
#1098
b0000000000001101 &
0(
#1099
1(
#1100
b0000000000001100 &
0(
#1101
1(
#1102
b0000000000001011 &
0(
#1103
1(
#1104
b0000000000001010 &
0(
#1105
1(
#1106
b0000000000001001 &
0(
#1107
1(
#1108
b0000000000001000 &
0(
#1109
1(
#1110
b0000000000000111 &
0(
#1111
1(
#1112
b0000000000000110 &
0(
#1113
1(
#1114
b0000000000000101 &
0(
#1115
1(
#1116
b0000000000000100 &
0(
#1117
1(
#1118
b0000000000000011 &
0(
#1119
1(
#1120
b0000000000000010 &
0(
#1121
1(
#1122
b0000000000000001 &
0(
#1123
1(
#1124
b0000000000000000 &
0(
#1125
1(
#1126
1#
b00000000000000000000000000001000 %
b0000000000001111 &
0(
#1127
1(
#1128
0#
b00000000000000000000000000001000 $
b0000000000001110 &
0(
b11111111 )
#1129
1(
#1130
b0000000000001101 &
0(
#1131
1(
#1132
b0000000000001100 &
0(
#1133
1(
#1134
b0000000000001011 &
0(
#1135
1(
#1136
b0000000000001010 &
0(
#1137
1(
#1138
b0000000000001001 &
0(
#1139
1(
#1140
b0000000000001000 &
0(
#1141
1(
#1142
b0000000000000111 &
0(
#1143
1(
#1144
b0000000000000110 &
0(
#1145
1(
#1146
b0000000000000101 &
0(
#1147
1(
#1148
b0000000000000100 &
0(
#1149
1(
#1150
b0000000000000011 &
0(
#1151
1(
#1152
b0000000000000010 &
0(
#1153
1(
#1154
b0000000000000001 &
0(
#1155
1(
#1156
b0000000000000000 &
0(
#1157
1(
#1158
1#
b00000000000000000000000000000000 %
b0000000000001111 &
0(
#1159
1(
